module logger

go 1.16

require (
	github.com/golang/protobuf v1.4.3 // indirect
	google.golang.org/genproto v0.0.0-20200806141610-86f49bd18e98 // indirect
	google.golang.org/grpc v1.36.0
	google.golang.org/protobuf v1.25.0
)
